G04 EAGLE Gerber RS-274X export*
G75*
%MOMM*%
%FSLAX34Y34*%
%LPD*%
%INTop Copper*%
%IPPOS*%
%AMOC8*
5,1,8,0,0,1.08239X$1,22.5*%
G01*
%ADD10R,1.651000X1.000000*%
%ADD11R,1.905000X1.270000*%
%ADD12R,1.650000X1.650000*%
%ADD13R,2.540000X3.810000*%
%ADD14P,1.924489X8X22.500000*%
%ADD15C,1.408000*%
%ADD16C,0.508000*%
%ADD17C,0.355600*%
%ADD18C,0.800000*%


D10*
X229140Y279480D03*
X177600Y279480D03*
X177600Y311480D03*
X229140Y311480D03*
D11*
X309382Y157210D03*
X309382Y124190D03*
D12*
X206800Y77690D03*
X181800Y77690D03*
X231800Y77690D03*
X181800Y215690D03*
X231800Y215690D03*
D13*
X151300Y153240D03*
X262519Y153240D03*
D14*
X100000Y132700D03*
X100000Y107300D03*
D15*
X272960Y328100D02*
X287040Y328100D01*
X287040Y302700D02*
X272960Y302700D01*
X272960Y277300D02*
X287040Y277300D01*
X287040Y251900D02*
X272960Y251900D01*
X137040Y328100D02*
X122960Y328100D01*
X122960Y302700D02*
X137040Y302700D01*
X137040Y277300D02*
X122960Y277300D01*
X122960Y251900D02*
X137040Y251900D01*
D16*
X309382Y124190D02*
X309382Y65039D01*
X280000Y251900D02*
X130000Y251900D01*
X280000Y251900D02*
X308100Y251900D01*
X346242Y213758D01*
X339382Y124190D02*
X309382Y124190D01*
X339382Y124190D02*
X346242Y131050D01*
X346242Y213758D01*
X231800Y57690D02*
X239490Y50000D01*
X231800Y57690D02*
X231800Y77690D01*
X239490Y50000D02*
X294343Y50000D01*
X309382Y65039D01*
D17*
X206800Y56800D02*
X206800Y77690D01*
X206800Y56800D02*
X200000Y50000D01*
X110000Y50000D01*
X100000Y60000D02*
X100000Y107300D01*
X100000Y60000D02*
X110000Y50000D01*
D16*
X150961Y262730D02*
X219283Y262730D01*
X230575Y274022D01*
X229140Y279480D01*
X277820Y279480D02*
X280000Y277300D01*
X277820Y279480D02*
X229140Y279480D01*
X136391Y277300D02*
X130000Y277300D01*
X136391Y277300D02*
X150961Y262730D01*
D18*
X324005Y110210D02*
X326445Y112650D01*
X341677Y112650D01*
X345919Y114407D01*
X352779Y121267D01*
X356025Y124513D01*
X357782Y128755D01*
X357782Y216053D01*
X356025Y220295D01*
X352779Y223541D01*
X314637Y261683D01*
X310395Y263440D01*
X298184Y263440D01*
X297024Y264600D01*
X300638Y268214D01*
X303080Y274109D01*
X303080Y280491D01*
X300638Y286386D01*
X297024Y290000D01*
X300638Y293614D01*
X303080Y299509D01*
X303080Y305891D01*
X300638Y311786D01*
X296126Y316298D01*
X294708Y316885D01*
X295887Y317742D01*
X297398Y319253D01*
X298655Y320983D01*
X299625Y322887D01*
X300286Y324920D01*
X300620Y327031D01*
X300620Y328100D01*
X280000Y328100D01*
X280000Y328100D01*
X300620Y328100D01*
X300620Y329169D01*
X300286Y331280D01*
X299625Y333313D01*
X298655Y335217D01*
X297398Y336947D01*
X295887Y338458D01*
X294157Y339715D01*
X293597Y340000D01*
X318762Y340000D01*
X316666Y337905D01*
X312827Y331255D01*
X310840Y323839D01*
X310840Y316161D01*
X312827Y308745D01*
X316666Y302095D01*
X322095Y296666D01*
X328745Y292827D01*
X336161Y290840D01*
X343839Y290840D01*
X351255Y292827D01*
X357905Y296666D01*
X360000Y298762D01*
X360000Y91238D01*
X357905Y93334D01*
X351255Y97173D01*
X343839Y99160D01*
X336161Y99160D01*
X328745Y97173D01*
X322095Y93334D01*
X320922Y92160D01*
X320922Y108933D01*
X324005Y110210D01*
X320697Y141860D02*
X298067Y141860D01*
X320697Y141860D02*
X324005Y143230D01*
X326537Y145762D01*
X327907Y149070D01*
X327907Y165350D01*
X326537Y168658D01*
X324005Y171190D01*
X320697Y172560D01*
X320160Y172560D01*
X320160Y192762D01*
X318519Y196723D01*
X290415Y224827D01*
X286454Y226468D01*
X248744Y226468D01*
X247680Y229038D01*
X245148Y231570D01*
X241840Y232940D01*
X221760Y232940D01*
X218452Y231570D01*
X215920Y229038D01*
X214550Y225730D01*
X214550Y205650D01*
X215920Y202342D01*
X216695Y201567D01*
X192961Y201567D01*
X193148Y201644D01*
X194219Y202360D01*
X195130Y203271D01*
X195846Y204342D01*
X196339Y205532D01*
X196590Y206796D01*
X196590Y215690D01*
X181800Y215690D01*
X181800Y215690D01*
X196590Y215690D01*
X196590Y224584D01*
X196339Y225848D01*
X195846Y227038D01*
X195130Y228109D01*
X194219Y229020D01*
X193148Y229736D01*
X191958Y230229D01*
X190694Y230480D01*
X181800Y230480D01*
X181800Y215690D01*
X181800Y215690D01*
X181800Y230480D01*
X172906Y230480D01*
X171642Y230229D01*
X170452Y229736D01*
X169381Y229020D01*
X168470Y228109D01*
X167754Y227038D01*
X167261Y225848D01*
X167010Y224584D01*
X167010Y215690D01*
X181800Y215690D01*
X181800Y215690D01*
X167010Y215690D01*
X167010Y206796D01*
X167261Y205532D01*
X167754Y204342D01*
X168470Y203271D01*
X169381Y202360D01*
X170452Y201644D01*
X170639Y201567D01*
X118645Y201567D01*
X114684Y199926D01*
X90863Y176105D01*
X89222Y172144D01*
X89222Y147222D01*
X82110Y140110D01*
X82110Y125290D01*
X87400Y120000D01*
X82110Y114710D01*
X82110Y99890D01*
X89222Y92778D01*
X89222Y92016D01*
X87905Y93334D01*
X81255Y97173D01*
X73839Y99160D01*
X66161Y99160D01*
X58745Y97173D01*
X52095Y93334D01*
X50000Y91238D01*
X50000Y298762D01*
X52095Y296666D01*
X58745Y292827D01*
X66161Y290840D01*
X73839Y290840D01*
X81255Y292827D01*
X87905Y296666D01*
X93334Y302095D01*
X97173Y308745D01*
X99160Y316161D01*
X99160Y323839D01*
X97173Y331255D01*
X93334Y337905D01*
X91238Y340000D01*
X116403Y340000D01*
X115843Y339715D01*
X114113Y338458D01*
X112602Y336947D01*
X111345Y335217D01*
X110375Y333313D01*
X109714Y331280D01*
X109380Y329169D01*
X109380Y328100D01*
X130000Y328100D01*
X130000Y328100D01*
X109380Y328100D01*
X109380Y327031D01*
X109714Y324920D01*
X110375Y322887D01*
X111345Y320983D01*
X112602Y319253D01*
X114113Y317742D01*
X115292Y316885D01*
X113874Y316298D01*
X109362Y311786D01*
X106920Y305891D01*
X106920Y299509D01*
X109362Y293614D01*
X112976Y290000D01*
X109362Y286386D01*
X106920Y280491D01*
X106920Y274109D01*
X109362Y268214D01*
X112976Y264600D01*
X109362Y260986D01*
X106920Y255091D01*
X106920Y248709D01*
X109362Y242814D01*
X113874Y238302D01*
X119769Y235860D01*
X140231Y235860D01*
X146126Y238302D01*
X148184Y240360D01*
X261816Y240360D01*
X263874Y238302D01*
X269769Y235860D01*
X290231Y235860D01*
X296126Y238302D01*
X298184Y240360D01*
X303320Y240360D01*
X334702Y208978D01*
X334702Y135830D01*
X334602Y135730D01*
X326445Y135730D01*
X324005Y138170D01*
X320697Y139540D01*
X298067Y139540D01*
X294759Y138170D01*
X292227Y135638D01*
X290857Y132330D01*
X290857Y116050D01*
X292227Y112742D01*
X294759Y110210D01*
X297842Y108933D01*
X297842Y69819D01*
X289563Y61540D01*
X244496Y61540D01*
X245148Y61810D01*
X247680Y64342D01*
X249050Y67650D01*
X249050Y87730D01*
X247680Y91038D01*
X245148Y93570D01*
X241840Y94940D01*
X221760Y94940D01*
X219300Y93921D01*
X216840Y94940D01*
X196760Y94940D01*
X193452Y93570D01*
X192066Y92184D01*
X191958Y92229D01*
X190694Y92480D01*
X181800Y92480D01*
X181800Y77690D01*
X181800Y77690D01*
X181800Y92480D01*
X172906Y92480D01*
X171642Y92229D01*
X170452Y91736D01*
X169381Y91020D01*
X168470Y90109D01*
X167754Y89038D01*
X167261Y87848D01*
X167010Y86584D01*
X167010Y77690D01*
X181800Y77690D01*
X181800Y77690D01*
X167010Y77690D01*
X167010Y68796D01*
X167261Y67532D01*
X167754Y66342D01*
X168470Y65271D01*
X169381Y64360D01*
X170452Y63644D01*
X171642Y63151D01*
X172906Y62900D01*
X181800Y62900D01*
X181800Y77690D01*
X181800Y77690D01*
X181800Y62900D01*
X190694Y62900D01*
X191958Y63151D01*
X192066Y63196D01*
X193452Y61810D01*
X195655Y60898D01*
X195536Y60778D01*
X114464Y60778D01*
X110778Y64464D01*
X110778Y92778D01*
X117890Y99890D01*
X117890Y114710D01*
X112600Y120000D01*
X117890Y125290D01*
X117890Y140110D01*
X110778Y147222D01*
X110778Y165536D01*
X125253Y180011D01*
X133722Y180011D01*
X133502Y179920D01*
X130970Y177388D01*
X129600Y174080D01*
X129600Y173691D01*
X127505Y168633D01*
X127505Y136747D01*
X129757Y131309D01*
X130260Y130807D01*
X130970Y129092D01*
X133502Y126560D01*
X136810Y125190D01*
X138645Y125190D01*
X139357Y124895D01*
X163243Y124895D01*
X163955Y125190D01*
X165790Y125190D01*
X169098Y126560D01*
X171630Y129092D01*
X172340Y130807D01*
X172843Y131309D01*
X175095Y136747D01*
X175095Y168633D01*
X173000Y173691D01*
X173000Y174080D01*
X171630Y177388D01*
X169098Y179920D01*
X168878Y180011D01*
X229379Y180011D01*
X233340Y181652D01*
X236372Y184684D01*
X237905Y186217D01*
X240937Y189249D01*
X242578Y193210D01*
X242578Y198746D01*
X245148Y199810D01*
X247680Y202342D01*
X248744Y204912D01*
X279846Y204912D01*
X298604Y186154D01*
X298604Y172560D01*
X298067Y172560D01*
X294759Y171190D01*
X292227Y168658D01*
X290857Y165350D01*
X290857Y149070D01*
X292227Y145762D01*
X294759Y143230D01*
X298067Y141860D01*
X238505Y168633D02*
X240757Y174071D01*
X238505Y168633D02*
X238505Y136747D01*
X240757Y131309D01*
X241634Y130433D01*
X242189Y129092D01*
X244721Y126560D01*
X248029Y125190D01*
X249645Y125190D01*
X250357Y124895D01*
X274243Y124895D01*
X274955Y125190D01*
X277009Y125190D01*
X280317Y126560D01*
X282849Y129092D01*
X283714Y131181D01*
X283843Y131309D01*
X286095Y136747D01*
X286095Y168633D01*
X284219Y173162D01*
X284219Y174080D01*
X282849Y177388D01*
X280317Y179920D01*
X277009Y181290D01*
X248029Y181290D01*
X244721Y179920D01*
X242189Y177388D01*
X240856Y174169D01*
X240757Y174071D01*
X211885Y304690D02*
X211885Y318270D01*
X211885Y304690D02*
X213255Y301382D01*
X215787Y298850D01*
X219095Y297480D01*
X239185Y297480D01*
X242493Y298850D01*
X244345Y300702D01*
X256920Y300702D01*
X256920Y299509D01*
X259362Y293614D01*
X261956Y291020D01*
X243583Y291020D01*
X242493Y292110D01*
X239185Y293480D01*
X219095Y293480D01*
X215787Y292110D01*
X213255Y289578D01*
X211885Y286270D01*
X211885Y274270D01*
X194855Y274270D01*
X194855Y286270D01*
X193485Y289578D01*
X190953Y292110D01*
X187645Y293480D01*
X178842Y293480D01*
X172382Y299940D01*
X177600Y299940D01*
X177600Y311480D01*
X177600Y311480D01*
X177600Y299940D01*
X186499Y299940D01*
X187763Y300191D01*
X188953Y300684D01*
X190024Y301400D01*
X190935Y302311D01*
X191651Y303382D01*
X192144Y304572D01*
X192395Y305836D01*
X192395Y311480D01*
X177600Y311480D01*
X177600Y311480D01*
X192395Y311480D01*
X192395Y317124D01*
X192144Y318388D01*
X191651Y319578D01*
X190935Y320649D01*
X190024Y321560D01*
X188953Y322276D01*
X187763Y322769D01*
X186499Y323020D01*
X177600Y323020D01*
X177600Y311480D01*
X177600Y311480D01*
X177600Y323020D01*
X168701Y323020D01*
X167437Y322769D01*
X166247Y322276D01*
X165176Y321560D01*
X164265Y320649D01*
X163549Y319578D01*
X163056Y318388D01*
X162805Y317124D01*
X162805Y311480D01*
X177600Y311480D01*
X177600Y311480D01*
X162805Y311480D01*
X162805Y309517D01*
X162675Y309647D01*
X158714Y311288D01*
X150844Y311288D01*
X150638Y311786D01*
X146126Y316298D01*
X144708Y316885D01*
X145887Y317742D01*
X147398Y319253D01*
X148655Y320983D01*
X149625Y322887D01*
X150286Y324920D01*
X150620Y327031D01*
X150620Y328100D01*
X130000Y328100D01*
X130000Y328100D01*
X150620Y328100D01*
X150620Y329169D01*
X150286Y331280D01*
X149625Y333313D01*
X148655Y335217D01*
X147398Y336947D01*
X145887Y338458D01*
X144157Y339715D01*
X143597Y340000D01*
X266403Y340000D01*
X265843Y339715D01*
X264113Y338458D01*
X262602Y336947D01*
X261345Y335217D01*
X260375Y333313D01*
X259714Y331280D01*
X259380Y329169D01*
X259380Y328100D01*
X280000Y328100D01*
X280000Y328100D01*
X259380Y328100D01*
X259380Y327031D01*
X259714Y324920D01*
X260375Y322887D01*
X260695Y322258D01*
X244345Y322258D01*
X242493Y324110D01*
X239185Y325480D01*
X219095Y325480D01*
X215787Y324110D01*
X213255Y321578D01*
X211885Y318270D01*
X170801Y63500D02*
X111742Y63500D01*
X181800Y63500D02*
X181800Y63500D01*
X246838Y63500D02*
X291523Y63500D01*
X167010Y76200D02*
X110778Y76200D01*
X181800Y76200D02*
X181800Y76200D01*
X249050Y76200D02*
X297842Y76200D01*
X167697Y88900D02*
X110778Y88900D01*
X181800Y88900D02*
X181800Y88900D01*
X248565Y88900D02*
X297842Y88900D01*
X82110Y101600D02*
X50000Y101600D01*
X117890Y101600D02*
X297842Y101600D01*
X320922Y101600D02*
X360000Y101600D01*
X82110Y114300D02*
X50000Y114300D01*
X117890Y114300D02*
X291582Y114300D01*
X345661Y114300D02*
X360000Y114300D01*
X82110Y127000D02*
X50000Y127000D01*
X117890Y127000D02*
X133062Y127000D01*
X169538Y127000D02*
X244281Y127000D01*
X280757Y127000D02*
X290857Y127000D01*
X357055Y127000D02*
X360000Y127000D01*
X82110Y139700D02*
X50000Y139700D01*
X117890Y139700D02*
X127505Y139700D01*
X175095Y139700D02*
X238505Y139700D01*
X286095Y139700D02*
X334702Y139700D01*
X357782Y139700D02*
X360000Y139700D01*
X89222Y152400D02*
X50000Y152400D01*
X110778Y152400D02*
X127505Y152400D01*
X175095Y152400D02*
X238505Y152400D01*
X286095Y152400D02*
X290857Y152400D01*
X327907Y152400D02*
X334702Y152400D01*
X357782Y152400D02*
X360000Y152400D01*
X89222Y165100D02*
X50000Y165100D01*
X110778Y165100D02*
X127505Y165100D01*
X175095Y165100D02*
X238505Y165100D01*
X286095Y165100D02*
X290857Y165100D01*
X327907Y165100D02*
X334702Y165100D01*
X357782Y165100D02*
X360000Y165100D01*
X92558Y177800D02*
X50000Y177800D01*
X123042Y177800D02*
X131382Y177800D01*
X171218Y177800D02*
X242601Y177800D01*
X282437Y177800D02*
X298604Y177800D01*
X320160Y177800D02*
X334702Y177800D01*
X357782Y177800D02*
X360000Y177800D01*
X105258Y190500D02*
X50000Y190500D01*
X241455Y190500D02*
X294258Y190500D01*
X320160Y190500D02*
X334702Y190500D01*
X357782Y190500D02*
X360000Y190500D01*
X168541Y203200D02*
X50000Y203200D01*
X195059Y203200D02*
X215565Y203200D01*
X248035Y203200D02*
X281558Y203200D01*
X312042Y203200D02*
X334702Y203200D01*
X357782Y203200D02*
X360000Y203200D01*
X167010Y215900D02*
X50000Y215900D01*
X181800Y215900D02*
X181800Y215900D01*
X196590Y215900D02*
X214550Y215900D01*
X299342Y215900D02*
X327780Y215900D01*
X357782Y215900D02*
X360000Y215900D01*
X168961Y228600D02*
X50000Y228600D01*
X181800Y228600D02*
X181800Y228600D01*
X194639Y228600D02*
X215739Y228600D01*
X247861Y228600D02*
X315080Y228600D01*
X347720Y228600D02*
X360000Y228600D01*
X110876Y241300D02*
X50000Y241300D01*
X335020Y241300D02*
X360000Y241300D01*
X106920Y254000D02*
X50000Y254000D01*
X322320Y254000D02*
X360000Y254000D01*
X110876Y266700D02*
X50000Y266700D01*
X299124Y266700D02*
X360000Y266700D01*
X106920Y279400D02*
X50000Y279400D01*
X194855Y279400D02*
X211885Y279400D01*
X303080Y279400D02*
X360000Y279400D01*
X61459Y292100D02*
X50000Y292100D01*
X78541Y292100D02*
X110876Y292100D01*
X190963Y292100D02*
X215777Y292100D01*
X242503Y292100D02*
X260876Y292100D01*
X299124Y292100D02*
X331459Y292100D01*
X348541Y292100D02*
X360000Y292100D01*
X106920Y304800D02*
X94895Y304800D01*
X177600Y304800D02*
X177600Y304800D01*
X192189Y304800D02*
X211885Y304800D01*
X303080Y304800D02*
X315105Y304800D01*
X114446Y317500D02*
X99160Y317500D01*
X145554Y317500D02*
X162880Y317500D01*
X177600Y317500D02*
X177600Y317500D01*
X192320Y317500D02*
X211885Y317500D01*
X295554Y317500D02*
X310840Y317500D01*
X109543Y330200D02*
X97456Y330200D01*
X150457Y330200D02*
X259543Y330200D01*
X300457Y330200D02*
X312544Y330200D01*
X50800Y297962D02*
X50800Y92038D01*
X63500Y98447D02*
X63500Y291553D01*
X76200Y291473D02*
X76200Y98527D01*
X88900Y93100D02*
X88900Y92338D01*
X88900Y146900D02*
X88900Y297662D01*
X101600Y340000D02*
X101600Y186842D01*
X114300Y96300D02*
X114300Y60942D01*
X114300Y118300D02*
X114300Y121700D01*
X114300Y143700D02*
X114300Y169058D01*
X114300Y199542D02*
X114300Y238126D01*
X114300Y316474D02*
X114300Y317606D01*
X114300Y328100D02*
X114300Y328100D01*
X114300Y338594D02*
X114300Y340000D01*
X127000Y180011D02*
X127000Y60778D01*
X127000Y201567D02*
X127000Y235860D01*
X127000Y328100D02*
X127000Y328100D01*
X139700Y124895D02*
X139700Y60778D01*
X139700Y201567D02*
X139700Y235860D01*
X139700Y328100D02*
X139700Y328100D01*
X152400Y124895D02*
X152400Y60778D01*
X152400Y201567D02*
X152400Y240360D01*
X152400Y311288D02*
X152400Y340000D01*
X165100Y125190D02*
X165100Y60778D01*
X165100Y201567D02*
X165100Y240360D01*
X165100Y311480D02*
X165100Y311480D01*
X165100Y321484D02*
X165100Y340000D01*
X177800Y62900D02*
X177800Y60778D01*
X177800Y77690D02*
X177800Y77690D01*
X177800Y92480D02*
X177800Y180011D01*
X177800Y215690D02*
X177800Y215690D01*
X177800Y230480D02*
X177800Y240360D01*
X177800Y294522D02*
X177800Y299940D01*
X177800Y311480D02*
X177800Y311480D01*
X177800Y323020D02*
X177800Y340000D01*
X190500Y62900D02*
X190500Y60778D01*
X190500Y92480D02*
X190500Y180011D01*
X190500Y215690D02*
X190500Y215690D01*
X190500Y230480D02*
X190500Y240360D01*
X190500Y292297D02*
X190500Y301876D01*
X190500Y311480D02*
X190500Y311480D01*
X190500Y321084D02*
X190500Y340000D01*
X203200Y180011D02*
X203200Y94940D01*
X203200Y201567D02*
X203200Y240360D01*
X203200Y274270D02*
X203200Y340000D01*
X215900Y180011D02*
X215900Y94940D01*
X215900Y201567D02*
X215900Y202391D01*
X215900Y228989D02*
X215900Y240360D01*
X215900Y292157D02*
X215900Y298803D01*
X215900Y324157D02*
X215900Y340000D01*
X228600Y180011D02*
X228600Y94940D01*
X228600Y232940D02*
X228600Y240360D01*
X228600Y293480D02*
X228600Y297480D01*
X228600Y325480D02*
X228600Y340000D01*
X241300Y130767D02*
X241300Y94940D01*
X241300Y175242D02*
X241300Y190125D01*
X241300Y232940D02*
X241300Y240360D01*
X241300Y292604D02*
X241300Y298356D01*
X241300Y324604D02*
X241300Y340000D01*
X254000Y124895D02*
X254000Y61540D01*
X254000Y181290D02*
X254000Y204912D01*
X254000Y226468D02*
X254000Y240360D01*
X254000Y291020D02*
X254000Y300702D01*
X254000Y322258D02*
X254000Y340000D01*
X266700Y124895D02*
X266700Y61540D01*
X266700Y181290D02*
X266700Y204912D01*
X266700Y226468D02*
X266700Y237131D01*
X266700Y328100D02*
X266700Y328100D01*
X279400Y126180D02*
X279400Y61540D01*
X279400Y180300D02*
X279400Y204912D01*
X279400Y226468D02*
X279400Y235860D01*
X279400Y328100D02*
X279400Y328100D01*
X292100Y113049D02*
X292100Y64077D01*
X292100Y135331D02*
X292100Y146069D01*
X292100Y168351D02*
X292100Y192658D01*
X292100Y223142D02*
X292100Y236634D01*
X292100Y328100D02*
X292100Y328100D01*
X304800Y141860D02*
X304800Y139540D01*
X304800Y210442D02*
X304800Y238880D01*
X304800Y263440D02*
X304800Y340000D01*
X317500Y141860D02*
X317500Y139540D01*
X317500Y197742D02*
X317500Y226180D01*
X317500Y258820D02*
X317500Y301262D01*
X317500Y338738D02*
X317500Y340000D01*
X330200Y112650D02*
X330200Y97563D01*
X330200Y135730D02*
X330200Y213480D01*
X330200Y246120D02*
X330200Y292437D01*
X342900Y113156D02*
X342900Y99160D01*
X342900Y233420D02*
X342900Y290840D01*
X355600Y124088D02*
X355600Y94664D01*
X355600Y220720D02*
X355600Y295336D01*
D17*
X280000Y302700D02*
X271220Y311480D01*
X229140Y311480D01*
X177600Y279480D02*
X156570Y300510D01*
X132560Y300510D01*
X130370Y302700D02*
X130000Y302700D01*
X130370Y302700D02*
X132560Y300510D01*
X231800Y195354D02*
X227235Y190789D01*
X100000Y170000D02*
X100000Y132700D01*
X120789Y190789D02*
X227235Y190789D01*
X120789Y190789D02*
X100000Y170000D01*
X231800Y195354D02*
X231800Y215690D01*
X284310Y215690D01*
X309382Y190618D02*
X309382Y157210D01*
X309382Y190618D02*
X284310Y215690D01*
M02*
